<svg version="1.1" id="el_lo0U5r6OO" xmlns="http://www.w3.org/2000/svg" xmlns:xlink="http://www.w3.org/1999/xlink" x="0px" y="0px" viewBox="0 0 500 500" enable-background="new 0 0 500 500" xml:space="preserve"><style type="text/css">@-webkit-keyframes kf_el_DqF35n4R5N_an_amx_yvykO {
    0% {
        -webkit-transform: translate(0px, 0px) translate(0px, 0px) translate(-2px, 0px);
                transform: translate(0px, 0px) translate(0px, 0px) translate(-2px, 0px)
    }
    0.80% {
        -webkit-transform: translate(0px, 0px) translate(0px, 0px) translate(-4px, 0px);
                transform: translate(0px, 0px) translate(0px, 0px) translate(-4px, 0px)
    }
    1.60% {
        -webkit-transform: translate(0px, 0px) translate(0px, 0px) translate(-6px, 0px);
                transform: translate(0px, 0px) translate(0px, 0px) translate(-6px, 0px)
    }
    2.40% {
        -webkit-transform: translate(0px, 0px) translate(0px, 0px) translate(-8px, 0px);
                transform: translate(0px, 0px) translate(0px, 0px) translate(-8px, 0px)
    }
    3.21% {
        -webkit-transform: translate(0px, 0px) translate(0px, 0px) translate(-10px, 0px);
                transform: translate(0px, 0px) translate(0px, 0px) translate(-10px, 0px)
    }
    4.01% {
        -webkit-transform: translate(0px, 0px) translate(0px, 0px) translate(-12px, 0px);
                transform: translate(0px, 0px) translate(0px, 0px) translate(-12px, 0px)
    }
    4.81% {
        -webkit-transform: translate(0px, 0px) translate(0px, 0px) translate(-14px, 0px);
                transform: translate(0px, 0px) translate(0px, 0px) translate(-14px, 0px)
    }
    5.61% {
        -webkit-transform: translate(0px, 0px) translate(0px, 0px) translate(-16px, 0px);
                transform: translate(0px, 0px) translate(0px, 0px) translate(-16px, 0px)
    }
    6.41% {
        -webkit-transform: translate(0px, 0px) translate(0px, 0px) translate(-18px, 0px);
                transform: translate(0px, 0px) translate(0px, 0px) translate(-18px, 0px)
    }
    7.21% {
        -webkit-transform: translate(0px, 0px) translate(0px, 0px) translate(-20px, 0px);
                transform: translate(0px, 0px) translate(0px, 0px) translate(-20px, 0px)
    }
    8.01% {
        -webkit-transform: translate(0px, 0px) translate(0px, 0px) translate(-22px, 0px);
                transform: translate(0px, 0px) translate(0px, 0px) translate(-22px, 0px)
    }
    8.81% {
        -webkit-transform: translate(0px, 0px) translate(0px, 0px) translate(-24px, 0px);
                transform: translate(0px, 0px) translate(0px, 0px) translate(-24px, 0px)
    }
    9.62% {
        -webkit-transform: translate(0px, 0px) translate(0px, 0px) translate(-26px, 0px);
                transform: translate(0px, 0px) translate(0px, 0px) translate(-26px, 0px)
    }
    10.42% {
        -webkit-transform: translate(0px, 0px) translate(0px, 0px) translate(-24px, 0px);
                transform: translate(0px, 0px) translate(0px, 0px) translate(-24px, 0px)
    }
    11.22% {
        -webkit-transform: translate(0px, 0px) translate(0px, 0px) translate(-22px, 0px);
                transform: translate(0px, 0px) translate(0px, 0px) translate(-22px, 0px)
    }
    12.02% {
        -webkit-transform: translate(0px, 0px) translate(0px, 0px) translate(-20px, 0px);
                transform: translate(0px, 0px) translate(0px, 0px) translate(-20px, 0px)
    }
    12.82% {
        -webkit-transform: translate(0px, 0px) translate(0px, 0px) translate(-18px, 0px);
                transform: translate(0px, 0px) translate(0px, 0px) translate(-18px, 0px)
    }
    13.62% {
        -webkit-transform: translate(0px, 0px) translate(0px, 0px) translate(-16px, 0px);
                transform: translate(0px, 0px) translate(0px, 0px) translate(-16px, 0px)
    }
    14.42% {
        -webkit-transform: translate(0px, 0px) translate(0px, 0px) translate(-14px, 0px);
                transform: translate(0px, 0px) translate(0px, 0px) translate(-14px, 0px)
    }
    15.22% {
        -webkit-transform: translate(0px, 0px) translate(0px, 0px) translate(-12px, 0px);
                transform: translate(0px, 0px) translate(0px, 0px) translate(-12px, 0px)
    }
    16.03% {
        -webkit-transform: translate(0px, 0px) translate(0px, 0px) translate(-10px, 0px);
                transform: translate(0px, 0px) translate(0px, 0px) translate(-10px, 0px)
    }
    16.83% {
        -webkit-transform: translate(0px, 0px) translate(0px, 0px) translate(-8px, 0px);
                transform: translate(0px, 0px) translate(0px, 0px) translate(-8px, 0px)
    }
    17.63% {
        -webkit-transform: translate(0px, 0px) translate(0px, 0px) translate(-6px, 0px);
                transform: translate(0px, 0px) translate(0px, 0px) translate(-6px, 0px)
    }
    18.43% {
        -webkit-transform: translate(0px, 0px) translate(0px, 0px) translate(-4px, 0px);
                transform: translate(0px, 0px) translate(0px, 0px) translate(-4px, 0px)
    }
    19.23% {
        -webkit-transform: translate(0px, 0px) translate(0px, 0px) translate(-2px, 0px);
                transform: translate(0px, 0px) translate(0px, 0px) translate(-2px, 0px)
    }
    20.03% {
        -webkit-transform: translate(0px, 0px) translate(0px, 0px) translate(0px, 0px);
                transform: translate(0px, 0px) translate(0px, 0px) translate(0px, 0px)
    }
    20.83% {
        -webkit-transform: translate(0px, 0px) translate(0px, 0px) translate(2px, 0px);
                transform: translate(0px, 0px) translate(0px, 0px) translate(2px, 0px)
    }
    21.63% {
        -webkit-transform: translate(0px, 0px) translate(0px, 0px) translate(4px, 0px);
                transform: translate(0px, 0px) translate(0px, 0px) translate(4px, 0px)
    }
    22.44% {
        -webkit-transform: translate(0px, 0px) translate(0px, 0px) translate(6px, 0px);
                transform: translate(0px, 0px) translate(0px, 0px) translate(6px, 0px)
    }
    23.24% {
        -webkit-transform: translate(0px, 0px) translate(0px, 0px) translate(8px, 0px);
                transform: translate(0px, 0px) translate(0px, 0px) translate(8px, 0px)
    }
    24.04% {
        -webkit-transform: translate(0px, 0px) translate(0px, 0px) translate(10px, 0px);
                transform: translate(0px, 0px) translate(0px, 0px) translate(10px, 0px)
    }
    24.84% {
        -webkit-transform: translate(0px, 0px) translate(0px, 0px) translate(12px, 0px);
                transform: translate(0px, 0px) translate(0px, 0px) translate(12px, 0px)
    }
    25.64% {
        -webkit-transform: translate(0px, 0px) translate(0px, 0px) translate(14px, 0px);
                transform: translate(0px, 0px) translate(0px, 0px) translate(14px, 0px)
    }
    26.44% {
        -webkit-transform: translate(0px, 0px) translate(0px, 0px) translate(16px, 0px);
                transform: translate(0px, 0px) translate(0px, 0px) translate(16px, 0px)
    }
    27.24% {
        -webkit-transform: translate(0px, 0px) translate(0px, 0px) translate(18px, 0px);
                transform: translate(0px, 0px) translate(0px, 0px) translate(18px, 0px)
    }
    28.04% {
        -webkit-transform: translate(0px, 0px) translate(0px, 0px) translate(20px, 0px);
                transform: translate(0px, 0px) translate(0px, 0px) translate(20px, 0px)
    }
    28.85% {
        -webkit-transform: translate(0px, 0px) translate(0px, 0px) translate(22px, 0px);
                transform: translate(0px, 0px) translate(0px, 0px) translate(22px, 0px)
    }
    29.65% {
        -webkit-transform: translate(0px, 0px) translate(0px, 0px) translate(24px, 0px);
                transform: translate(0px, 0px) translate(0px, 0px) translate(24px, 0px)
    }
    30.45% {
        -webkit-transform: translate(0px, 0px) translate(0px, 0px) translate(26px, 0px);
                transform: translate(0px, 0px) translate(0px, 0px) translate(26px, 0px)
    }
    31.25% {
        -webkit-transform: translate(0px, 0px) translate(0px, 0px) translate(28px, 0px);
                transform: translate(0px, 0px) translate(0px, 0px) translate(28px, 0px)
    }
    32.05% {
        -webkit-transform: translate(0px, 0px) translate(0px, 0px) translate(30px, 0px);
                transform: translate(0px, 0px) translate(0px, 0px) translate(30px, 0px)
    }
    32.85% {
        -webkit-transform: translate(0px, 0px) translate(0px, 0px) translate(32px, 0px);
                transform: translate(0px, 0px) translate(0px, 0px) translate(32px, 0px)
    }
    33.65% {
        -webkit-transform: translate(0px, 0px) translate(0px, 0px) translate(34px, 0px);
                transform: translate(0px, 0px) translate(0px, 0px) translate(34px, 0px)
    }
    34.46% {
        -webkit-transform: translate(0px, 0px) translate(0px, 0px) translate(36px, 0px);
                transform: translate(0px, 0px) translate(0px, 0px) translate(36px, 0px)
    }
    35.26% {
        -webkit-transform: translate(0px, 0px) translate(0px, 0px) translate(38px, 0px);
                transform: translate(0px, 0px) translate(0px, 0px) translate(38px, 0px)
    }
    36.06% {
        -webkit-transform: translate(0px, 0px) translate(0px, 0px) translate(40px, 0px);
                transform: translate(0px, 0px) translate(0px, 0px) translate(40px, 0px)
    }
    36.86% {
        -webkit-transform: translate(0px, 0px) translate(0px, 0px) translate(42px, 0px);
                transform: translate(0px, 0px) translate(0px, 0px) translate(42px, 0px)
    }
    37.66% {
        -webkit-transform: translate(0px, 0px) translate(0px, 0px) translate(44px, 0px);
                transform: translate(0px, 0px) translate(0px, 0px) translate(44px, 0px)
    }
    38.46% {
        -webkit-transform: translate(0px, 0px) translate(0px, 0px) translate(46px, 0px);
                transform: translate(0px, 0px) translate(0px, 0px) translate(46px, 0px)
    }
    39.26% {
        -webkit-transform: translate(0px, 0px) translate(0px, 0px) translate(44px, 0px);
                transform: translate(0px, 0px) translate(0px, 0px) translate(44px, 0px)
    }
    40.06% {
        -webkit-transform: translate(0px, 0px) translate(0px, 0px) translate(42px, 0px);
                transform: translate(0px, 0px) translate(0px, 0px) translate(42px, 0px)
    }
    40.87% {
        -webkit-transform: translate(0px, 0px) translate(0px, 0px) translate(40px, 0px);
                transform: translate(0px, 0px) translate(0px, 0px) translate(40px, 0px)
    }
    41.67% {
        -webkit-transform: translate(0px, 0px) translate(0px, 0px) translate(38px, 0px);
                transform: translate(0px, 0px) translate(0px, 0px) translate(38px, 0px)
    }
    42.47% {
        -webkit-transform: translate(0px, 0px) translate(0px, 0px) translate(36px, 0px);
                transform: translate(0px, 0px) translate(0px, 0px) translate(36px, 0px)
    }
    43.27% {
        -webkit-transform: translate(0px, 0px) translate(0px, 0px) translate(34px, 0px);
                transform: translate(0px, 0px) translate(0px, 0px) translate(34px, 0px)
    }
    44.07% {
        -webkit-transform: translate(0px, 0px) translate(0px, 0px) translate(32px, 0px);
                transform: translate(0px, 0px) translate(0px, 0px) translate(32px, 0px)
    }
    44.87% {
        -webkit-transform: translate(0px, 0px) translate(0px, 0px) translate(30px, 0px);
                transform: translate(0px, 0px) translate(0px, 0px) translate(30px, 0px)
    }
    45.67% {
        -webkit-transform: translate(0px, 0px) translate(0px, 0px) translate(28px, 0px);
                transform: translate(0px, 0px) translate(0px, 0px) translate(28px, 0px)
    }
    46.47% {
        -webkit-transform: translate(0px, 0px) translate(0px, 0px) translate(26px, 0px);
                transform: translate(0px, 0px) translate(0px, 0px) translate(26px, 0px)
    }
    47.28% {
        -webkit-transform: translate(0px, 0px) translate(0px, 0px) translate(24px, 0px);
                transform: translate(0px, 0px) translate(0px, 0px) translate(24px, 0px)
    }
    48.08% {
        -webkit-transform: translate(0px, 0px) translate(0px, 0px) translate(22px, 0px);
                transform: translate(0px, 0px) translate(0px, 0px) translate(22px, 0px)
    }
    48.88% {
        -webkit-transform: translate(0px, 0px) translate(0px, 0px) translate(20px, 0px);
                transform: translate(0px, 0px) translate(0px, 0px) translate(20px, 0px)
    }
    49.68% {
        -webkit-transform: translate(0px, 0px) translate(0px, 0px) translate(18px, 0px);
                transform: translate(0px, 0px) translate(0px, 0px) translate(18px, 0px)
    }
    50.48% {
        -webkit-transform: translate(0px, 0px) translate(0px, 0px) translate(16px, 0px);
                transform: translate(0px, 0px) translate(0px, 0px) translate(16px, 0px)
    }
    51.28% {
        -webkit-transform: translate(0px, 0px) translate(0px, 0px) translate(14px, 0px);
                transform: translate(0px, 0px) translate(0px, 0px) translate(14px, 0px)
    }
    52.08% {
        -webkit-transform: translate(0px, 0px) translate(0px, 0px) translate(12px, 0px);
                transform: translate(0px, 0px) translate(0px, 0px) translate(12px, 0px)
    }
    52.88% {
        -webkit-transform: translate(0px, 0px) translate(0px, 0px) translate(10px, 0px);
                transform: translate(0px, 0px) translate(0px, 0px) translate(10px, 0px)
    }
    53.69% {
        -webkit-transform: translate(0px, 0px) translate(0px, 0px) translate(8px, 0px);
                transform: translate(0px, 0px) translate(0px, 0px) translate(8px, 0px)
    }
    54.49% {
        -webkit-transform: translate(0px, 0px) translate(0px, 0px) translate(6px, 0px);
                transform: translate(0px, 0px) translate(0px, 0px) translate(6px, 0px)
    }
    55.29% {
        -webkit-transform: translate(0px, 0px) translate(0px, 0px) translate(4px, 0px);
                transform: translate(0px, 0px) translate(0px, 0px) translate(4px, 0px)
    }
    56.09% {
        -webkit-transform: translate(0px, 0px) translate(0px, 0px) translate(2px, 0px);
                transform: translate(0px, 0px) translate(0px, 0px) translate(2px, 0px)
    }
    56.89% {
        -webkit-transform: translate(0px, 0px) translate(0px, 0px) translate(0px, 0px);
                transform: translate(0px, 0px) translate(0px, 0px) translate(0px, 0px)
    }
    57.69% {
        -webkit-transform: translate(0px, 0px) translate(0px, 0px) translate(0px, 2px);
                transform: translate(0px, 0px) translate(0px, 0px) translate(0px, 2px)
    }
    58.49% {
        -webkit-transform: translate(0px, 0px) translate(0px, 0px) translate(0px, 4px);
                transform: translate(0px, 0px) translate(0px, 0px) translate(0px, 4px)
    }
    59.29% {
        -webkit-transform: translate(0px, 0px) translate(0px, 0px) translate(0px, 6px);
                transform: translate(0px, 0px) translate(0px, 0px) translate(0px, 6px)
    }
    60.10% {
        -webkit-transform: translate(0px, 0px) translate(0px, 0px) translate(0px, 8px);
                transform: translate(0px, 0px) translate(0px, 0px) translate(0px, 8px)
    }
    60.90% {
        -webkit-transform: translate(0px, 0px) translate(0px, 0px) translate(0px, 10px);
                transform: translate(0px, 0px) translate(0px, 0px) translate(0px, 10px)
    }
    61.70% {
        -webkit-transform: translate(0px, 0px) translate(0px, 0px) translate(0px, 12px);
                transform: translate(0px, 0px) translate(0px, 0px) translate(0px, 12px)
    }
    62.50% {
        -webkit-transform: translate(0px, 0px) translate(0px, 0px) translate(0px, 14px);
                transform: translate(0px, 0px) translate(0px, 0px) translate(0px, 14px)
    }
    63.30% {
        -webkit-transform: translate(0px, 0px) translate(0px, 0px) translate(0px, 16px);
                transform: translate(0px, 0px) translate(0px, 0px) translate(0px, 16px)
    }
    64.10% {
        -webkit-transform: translate(0px, 0px) translate(0px, 0px) translate(0px, 18px);
                transform: translate(0px, 0px) translate(0px, 0px) translate(0px, 18px)
    }
    64.90% {
        -webkit-transform: translate(0px, 0px) translate(0px, 0px) translate(0px, 20px);
                transform: translate(0px, 0px) translate(0px, 0px) translate(0px, 20px)
    }
    65.71% {
        -webkit-transform: translate(0px, 0px) translate(0px, 0px) translate(0px, 22px);
                transform: translate(0px, 0px) translate(0px, 0px) translate(0px, 22px)
    }
    66.51% {
        -webkit-transform: translate(0px, 0px) translate(0px, 0px) translate(0px, 24px);
                transform: translate(0px, 0px) translate(0px, 0px) translate(0px, 24px)
    }
    67.31% {
        -webkit-transform: translate(0px, 0px) translate(0px, 0px) translate(0px, 26px);
                transform: translate(0px, 0px) translate(0px, 0px) translate(0px, 26px)
    }
    68.11% {
        -webkit-transform: translate(0px, 0px) translate(0px, 0px) translate(0px, 28px);
                transform: translate(0px, 0px) translate(0px, 0px) translate(0px, 28px)
    }
    68.91% {
        -webkit-transform: translate(0px, 0px) translate(0px, 0px) translate(0px, 30px);
                transform: translate(0px, 0px) translate(0px, 0px) translate(0px, 30px)
    }
    69.71% {
        -webkit-transform: translate(0px, 0px) translate(0px, 0px) translate(0px, 32px);
                transform: translate(0px, 0px) translate(0px, 0px) translate(0px, 32px)
    }
    70.51% {
        -webkit-transform: translate(0px, 0px) translate(0px, 0px) translate(0px, 30px);
                transform: translate(0px, 0px) translate(0px, 0px) translate(0px, 30px)
    }
    71.31% {
        -webkit-transform: translate(0px, 0px) translate(0px, 0px) translate(0px, 28px);
                transform: translate(0px, 0px) translate(0px, 0px) translate(0px, 28px)
    }
    72.12% {
        -webkit-transform: translate(0px, 0px) translate(0px, 0px) translate(0px, 26px);
                transform: translate(0px, 0px) translate(0px, 0px) translate(0px, 26px)
    }
    72.92% {
        -webkit-transform: translate(0px, 0px) translate(0px, 0px) translate(0px, 24px);
                transform: translate(0px, 0px) translate(0px, 0px) translate(0px, 24px)
    }
    73.72% {
        -webkit-transform: translate(0px, 0px) translate(0px, 0px) translate(0px, 22px);
                transform: translate(0px, 0px) translate(0px, 0px) translate(0px, 22px)
    }
    74.52% {
        -webkit-transform: translate(0px, 0px) translate(0px, 0px) translate(0px, 20px);
                transform: translate(0px, 0px) translate(0px, 0px) translate(0px, 20px)
    }
    75.32% {
        -webkit-transform: translate(0px, 0px) translate(0px, 0px) translate(0px, 18px);
                transform: translate(0px, 0px) translate(0px, 0px) translate(0px, 18px)
    }
    76.12% {
        -webkit-transform: translate(0px, 0px) translate(0px, 0px) translate(0px, 16px);
                transform: translate(0px, 0px) translate(0px, 0px) translate(0px, 16px)
    }
    76.92% {
        -webkit-transform: translate(0px, 0px) translate(0px, 0px) translate(0px, 14px);
                transform: translate(0px, 0px) translate(0px, 0px) translate(0px, 14px)
    }
    77.72% {
        -webkit-transform: translate(0px, 0px) translate(0px, 0px) translate(0px, 12px);
                transform: translate(0px, 0px) translate(0px, 0px) translate(0px, 12px)
    }
    78.53% {
        -webkit-transform: translate(0px, 0px) translate(0px, 0px) translate(0px, 10px);
                transform: translate(0px, 0px) translate(0px, 0px) translate(0px, 10px)
    }
    79.33% {
        -webkit-transform: translate(0px, 0px) translate(0px, 0px) translate(0px, 8px);
                transform: translate(0px, 0px) translate(0px, 0px) translate(0px, 8px)
    }
    80.13% {
        -webkit-transform: translate(0px, 0px) translate(0px, 0px) translate(0px, 6px);
                transform: translate(0px, 0px) translate(0px, 0px) translate(0px, 6px)
    }
    80.93% {
        -webkit-transform: translate(0px, 0px) translate(0px, 0px) translate(0px, 4px);
                transform: translate(0px, 0px) translate(0px, 0px) translate(0px, 4px)
    }
    81.73% {
        -webkit-transform: translate(0px, 0px) translate(0px, 0px) translate(0px, 2px);
                transform: translate(0px, 0px) translate(0px, 0px) translate(0px, 2px)
    }
    82.53% {
        -webkit-transform: translate(0px, 0px) translate(0px, 0px) translate(0px, 0px);
                transform: translate(0px, 0px) translate(0px, 0px) translate(0px, 0px)
    }
    83.33% {
        -webkit-transform: translate(0px, 0px) translate(0px, 0px) translate(0px, -2px);
                transform: translate(0px, 0px) translate(0px, 0px) translate(0px, -2px)
    }
    84.13% {
        -webkit-transform: translate(0px, 0px) translate(0px, 0px) translate(0px, -4px);
                transform: translate(0px, 0px) translate(0px, 0px) translate(0px, -4px)
    }
    84.94% {
        -webkit-transform: translate(0px, 0px) translate(0px, 0px) translate(0px, -6px);
                transform: translate(0px, 0px) translate(0px, 0px) translate(0px, -6px)
    }
    85.74% {
        -webkit-transform: translate(0px, 0px) translate(0px, 0px) translate(0px, -8px);
                transform: translate(0px, 0px) translate(0px, 0px) translate(0px, -8px)
    }
    86.54% {
        -webkit-transform: translate(0px, 0px) translate(0px, 0px) translate(0px, -10px);
                transform: translate(0px, 0px) translate(0px, 0px) translate(0px, -10px)
    }
    87.34% {
        -webkit-transform: translate(0px, 0px) translate(0px, 0px) translate(0px, -12px);
                transform: translate(0px, 0px) translate(0px, 0px) translate(0px, -12px)
    }
    88.14% {
        -webkit-transform: translate(0px, 0px) translate(0px, 0px) translate(0px, -14px);
                transform: translate(0px, 0px) translate(0px, 0px) translate(0px, -14px)
    }
    88.94% {
        -webkit-transform: translate(0px, 0px) translate(0px, 0px) translate(0px, -16px);
                transform: translate(0px, 0px) translate(0px, 0px) translate(0px, -16px)
    }
    89.74% {
        -webkit-transform: translate(0px, 0px) translate(0px, 0px) translate(0px, -18px);
                transform: translate(0px, 0px) translate(0px, 0px) translate(0px, -18px)
    }
    90.54% {
        -webkit-transform: translate(0px, 0px) translate(0px, 0px) translate(0px, -20px);
                transform: translate(0px, 0px) translate(0px, 0px) translate(0px, -20px)
    }
    91.35% {
        -webkit-transform: translate(0px, 0px) translate(0px, 0px) translate(0px, -22px);
                transform: translate(0px, 0px) translate(0px, 0px) translate(0px, -22px)
    }
    92.15% {
        -webkit-transform: translate(0px, 0px) translate(0px, 0px) translate(0px, -20px);
                transform: translate(0px, 0px) translate(0px, 0px) translate(0px, -20px)
    }
    92.95% {
        -webkit-transform: translate(0px, 0px) translate(0px, 0px) translate(0px, -18px);
                transform: translate(0px, 0px) translate(0px, 0px) translate(0px, -18px)
    }
    93.75% {
        -webkit-transform: translate(0px, 0px) translate(0px, 0px) translate(0px, -16px);
                transform: translate(0px, 0px) translate(0px, 0px) translate(0px, -16px)
    }
    94.55% {
        -webkit-transform: translate(0px, 0px) translate(0px, 0px) translate(0px, -14px);
                transform: translate(0px, 0px) translate(0px, 0px) translate(0px, -14px)
    }
    95.35% {
        -webkit-transform: translate(0px, 0px) translate(0px, 0px) translate(0px, -12px);
                transform: translate(0px, 0px) translate(0px, 0px) translate(0px, -12px)
    }
    96.15% {
        -webkit-transform: translate(0px, 0px) translate(0px, 0px) translate(0px, -10px);
                transform: translate(0px, 0px) translate(0px, 0px) translate(0px, -10px)
    }
    96.96% {
        -webkit-transform: translate(0px, 0px) translate(0px, 0px) translate(0px, -8px);
                transform: translate(0px, 0px) translate(0px, 0px) translate(0px, -8px)
    }
    97.76% {
        -webkit-transform: translate(0px, 0px) translate(0px, 0px) translate(0px, -6px);
                transform: translate(0px, 0px) translate(0px, 0px) translate(0px, -6px)
    }
    98.56% {
        -webkit-transform: translate(0px, 0px) translate(0px, 0px) translate(0px, -4px);
                transform: translate(0px, 0px) translate(0px, 0px) translate(0px, -4px)
    }
    99.36% {
        -webkit-transform: translate(0px, 0px) translate(0px, 0px) translate(0px, -2px);
                transform: translate(0px, 0px) translate(0px, 0px) translate(0px, -2px)
    }
    100% {
        -webkit-transform: translate(0px, 0px) translate(0px, 0px) translate(0px, -2px);
                transform: translate(0px, 0px) translate(0px, 0px) translate(0px, -2px)
    }
}
@keyframes kf_el_DqF35n4R5N_an_amx_yvykO {
    0% {
        -webkit-transform: translate(0px, 0px) translate(0px, 0px) translate(-2px, 0px);
                transform: translate(0px, 0px) translate(0px, 0px) translate(-2px, 0px)
    }
    0.80% {
        -webkit-transform: translate(0px, 0px) translate(0px, 0px) translate(-4px, 0px);
                transform: translate(0px, 0px) translate(0px, 0px) translate(-4px, 0px)
    }
    1.60% {
        -webkit-transform: translate(0px, 0px) translate(0px, 0px) translate(-6px, 0px);
                transform: translate(0px, 0px) translate(0px, 0px) translate(-6px, 0px)
    }
    2.40% {
        -webkit-transform: translate(0px, 0px) translate(0px, 0px) translate(-8px, 0px);
                transform: translate(0px, 0px) translate(0px, 0px) translate(-8px, 0px)
    }
    3.21% {
        -webkit-transform: translate(0px, 0px) translate(0px, 0px) translate(-10px, 0px);
                transform: translate(0px, 0px) translate(0px, 0px) translate(-10px, 0px)
    }
    4.01% {
        -webkit-transform: translate(0px, 0px) translate(0px, 0px) translate(-12px, 0px);
                transform: translate(0px, 0px) translate(0px, 0px) translate(-12px, 0px)
    }
    4.81% {
        -webkit-transform: translate(0px, 0px) translate(0px, 0px) translate(-14px, 0px);
                transform: translate(0px, 0px) translate(0px, 0px) translate(-14px, 0px)
    }
    5.61% {
        -webkit-transform: translate(0px, 0px) translate(0px, 0px) translate(-16px, 0px);
                transform: translate(0px, 0px) translate(0px, 0px) translate(-16px, 0px)
    }
    6.41% {
        -webkit-transform: translate(0px, 0px) translate(0px, 0px) translate(-18px, 0px);
                transform: translate(0px, 0px) translate(0px, 0px) translate(-18px, 0px)
    }
    7.21% {
        -webkit-transform: translate(0px, 0px) translate(0px, 0px) translate(-20px, 0px);
                transform: translate(0px, 0px) translate(0px, 0px) translate(-20px, 0px)
    }
    8.01% {
        -webkit-transform: translate(0px, 0px) translate(0px, 0px) translate(-22px, 0px);
                transform: translate(0px, 0px) translate(0px, 0px) translate(-22px, 0px)
    }
    8.81% {
        -webkit-transform: translate(0px, 0px) translate(0px, 0px) translate(-24px, 0px);
                transform: translate(0px, 0px) translate(0px, 0px) translate(-24px, 0px)
    }
    9.62% {
        -webkit-transform: translate(0px, 0px) translate(0px, 0px) translate(-26px, 0px);
                transform: translate(0px, 0px) translate(0px, 0px) translate(-26px, 0px)
    }
    10.42% {
        -webkit-transform: translate(0px, 0px) translate(0px, 0px) translate(-24px, 0px);
                transform: translate(0px, 0px) translate(0px, 0px) translate(-24px, 0px)
    }
    11.22% {
        -webkit-transform: translate(0px, 0px) translate(0px, 0px) translate(-22px, 0px);
                transform: translate(0px, 0px) translate(0px, 0px) translate(-22px, 0px)
    }
    12.02% {
        -webkit-transform: translate(0px, 0px) translate(0px, 0px) translate(-20px, 0px);
                transform: translate(0px, 0px) translate(0px, 0px) translate(-20px, 0px)
    }
    12.82% {
        -webkit-transform: translate(0px, 0px) translate(0px, 0px) translate(-18px, 0px);
                transform: translate(0px, 0px) translate(0px, 0px) translate(-18px, 0px)
    }
    13.62% {
        -webkit-transform: translate(0px, 0px) translate(0px, 0px) translate(-16px, 0px);
                transform: translate(0px, 0px) translate(0px, 0px) translate(-16px, 0px)
    }
    14.42% {
        -webkit-transform: translate(0px, 0px) translate(0px, 0px) translate(-14px, 0px);
                transform: translate(0px, 0px) translate(0px, 0px) translate(-14px, 0px)
    }
    15.22% {
        -webkit-transform: translate(0px, 0px) translate(0px, 0px) translate(-12px, 0px);
                transform: translate(0px, 0px) translate(0px, 0px) translate(-12px, 0px)
    }
    16.03% {
        -webkit-transform: translate(0px, 0px) translate(0px, 0px) translate(-10px, 0px);
                transform: translate(0px, 0px) translate(0px, 0px) translate(-10px, 0px)
    }
    16.83% {
        -webkit-transform: translate(0px, 0px) translate(0px, 0px) translate(-8px, 0px);
                transform: translate(0px, 0px) translate(0px, 0px) translate(-8px, 0px)
    }
    17.63% {
        -webkit-transform: translate(0px, 0px) translate(0px, 0px) translate(-6px, 0px);
                transform: translate(0px, 0px) translate(0px, 0px) translate(-6px, 0px)
    }
    18.43% {
        -webkit-transform: translate(0px, 0px) translate(0px, 0px) translate(-4px, 0px);
                transform: translate(0px, 0px) translate(0px, 0px) translate(-4px, 0px)
    }
    19.23% {
        -webkit-transform: translate(0px, 0px) translate(0px, 0px) translate(-2px, 0px);
                transform: translate(0px, 0px) translate(0px, 0px) translate(-2px, 0px)
    }
    20.03% {
        -webkit-transform: translate(0px, 0px) translate(0px, 0px) translate(0px, 0px);
                transform: translate(0px, 0px) translate(0px, 0px) translate(0px, 0px)
    }
    20.83% {
        -webkit-transform: translate(0px, 0px) translate(0px, 0px) translate(2px, 0px);
                transform: translate(0px, 0px) translate(0px, 0px) translate(2px, 0px)
    }
    21.63% {
        -webkit-transform: translate(0px, 0px) translate(0px, 0px) translate(4px, 0px);
                transform: translate(0px, 0px) translate(0px, 0px) translate(4px, 0px)
    }
    22.44% {
        -webkit-transform: translate(0px, 0px) translate(0px, 0px) translate(6px, 0px);
                transform: translate(0px, 0px) translate(0px, 0px) translate(6px, 0px)
    }
    23.24% {
        -webkit-transform: translate(0px, 0px) translate(0px, 0px) translate(8px, 0px);
                transform: translate(0px, 0px) translate(0px, 0px) translate(8px, 0px)
    }
    24.04% {
        -webkit-transform: translate(0px, 0px) translate(0px, 0px) translate(10px, 0px);
                transform: translate(0px, 0px) translate(0px, 0px) translate(10px, 0px)
    }
    24.84% {
        -webkit-transform: translate(0px, 0px) translate(0px, 0px) translate(12px, 0px);
                transform: translate(0px, 0px) translate(0px, 0px) translate(12px, 0px)
    }
    25.64% {
        -webkit-transform: translate(0px, 0px) translate(0px, 0px) translate(14px, 0px);
                transform: translate(0px, 0px) translate(0px, 0px) translate(14px, 0px)
    }
    26.44% {
        -webkit-transform: translate(0px, 0px) translate(0px, 0px) translate(16px, 0px);
                transform: translate(0px, 0px) translate(0px, 0px) translate(16px, 0px)
    }
    27.24% {
        -webkit-transform: translate(0px, 0px) translate(0px, 0px) translate(18px, 0px);
                transform: translate(0px, 0px) translate(0px, 0px) translate(18px, 0px)
    }
    28.04% {
        -webkit-transform: translate(0px, 0px) translate(0px, 0px) translate(20px, 0px);
                transform: translate(0px, 0px) translate(0px, 0px) translate(20px, 0px)
    }
    28.85% {
        -webkit-transform: translate(0px, 0px) translate(0px, 0px) translate(22px, 0px);
                transform: translate(0px, 0px) translate(0px, 0px) translate(22px, 0px)
    }
    29.65% {
        -webkit-transform: translate(0px, 0px) translate(0px, 0px) translate(24px, 0px);
                transform: translate(0px, 0px) translate(0px, 0px) translate(24px, 0px)
    }
    30.45% {
        -webkit-transform: translate(0px, 0px) translate(0px, 0px) translate(26px, 0px);
                transform: translate(0px, 0px) translate(0px, 0px) translate(26px, 0px)
    }
    31.25% {
        -webkit-transform: translate(0px, 0px) translate(0px, 0px) translate(28px, 0px);
                transform: translate(0px, 0px) translate(0px, 0px) translate(28px, 0px)
    }
    32.05% {
        -webkit-transform: translate(0px, 0px) translate(0px, 0px) translate(30px, 0px);
                transform: translate(0px, 0px) translate(0px, 0px) translate(30px, 0px)
    }
    32.85% {
        -webkit-transform: translate(0px, 0px) translate(0px, 0px) translate(32px, 0px);
                transform: translate(0px, 0px) translate(0px, 0px) translate(32px, 0px)
    }
    33.65% {
        -webkit-transform: translate(0px, 0px) translate(0px, 0px) translate(34px, 0px);
                transform: translate(0px, 0px) translate(0px, 0px) translate(34px, 0px)
    }
    34.46% {
        -webkit-transform: translate(0px, 0px) translate(0px, 0px) translate(36px, 0px);
                transform: translate(0px, 0px) translate(0px, 0px) translate(36px, 0px)
    }
    35.26% {
        -webkit-transform: translate(0px, 0px) translate(0px, 0px) translate(38px, 0px);
                transform: translate(0px, 0px) translate(0px, 0px) translate(38px, 0px)
    }
    36.06% {
        -webkit-transform: translate(0px, 0px) translate(0px, 0px) translate(40px, 0px);
                transform: translate(0px, 0px) translate(0px, 0px) translate(40px, 0px)
    }
    36.86% {
        -webkit-transform: translate(0px, 0px) translate(0px, 0px) translate(42px, 0px);
                transform: translate(0px, 0px) translate(0px, 0px) translate(42px, 0px)
    }
    37.66% {
        -webkit-transform: translate(0px, 0px) translate(0px, 0px) translate(44px, 0px);
                transform: translate(0px, 0px) translate(0px, 0px) translate(44px, 0px)
    }
    38.46% {
        -webkit-transform: translate(0px, 0px) translate(0px, 0px) translate(46px, 0px);
                transform: translate(0px, 0px) translate(0px, 0px) translate(46px, 0px)
    }
    39.26% {
        -webkit-transform: translate(0px, 0px) translate(0px, 0px) translate(44px, 0px);
                transform: translate(0px, 0px) translate(0px, 0px) translate(44px, 0px)
    }
    40.06% {
        -webkit-transform: translate(0px, 0px) translate(0px, 0px) translate(42px, 0px);
                transform: translate(0px, 0px) translate(0px, 0px) translate(42px, 0px)
    }
    40.87% {
        -webkit-transform: translate(0px, 0px) translate(0px, 0px) translate(40px, 0px);
                transform: translate(0px, 0px) translate(0px, 0px) translate(40px, 0px)
    }
    41.67% {
        -webkit-transform: translate(0px, 0px) translate(0px, 0px) translate(38px, 0px);
                transform: translate(0px, 0px) translate(0px, 0px) translate(38px, 0px)
    }
    42.47% {
        -webkit-transform: translate(0px, 0px) translate(0px, 0px) translate(36px, 0px);
                transform: translate(0px, 0px) translate(0px, 0px) translate(36px, 0px)
    }
    43.27% {
        -webkit-transform: translate(0px, 0px) translate(0px, 0px) translate(34px, 0px);
                transform: translate(0px, 0px) translate(0px, 0px) translate(34px, 0px)
    }
    44.07% {
        -webkit-transform: translate(0px, 0px) translate(0px, 0px) translate(32px, 0px);
                transform: translate(0px, 0px) translate(0px, 0px) translate(32px, 0px)
    }
    44.87% {
        -webkit-transform: translate(0px, 0px) translate(0px, 0px) translate(30px, 0px);
                transform: translate(0px, 0px) translate(0px, 0px) translate(30px, 0px)
    }
    45.67% {
        -webkit-transform: translate(0px, 0px) translate(0px, 0px) translate(28px, 0px);
                transform: translate(0px, 0px) translate(0px, 0px) translate(28px, 0px)
    }
    46.47% {
        -webkit-transform: translate(0px, 0px) translate(0px, 0px) translate(26px, 0px);
                transform: translate(0px, 0px) translate(0px, 0px) translate(26px, 0px)
    }
    47.28% {
        -webkit-transform: translate(0px, 0px) translate(0px, 0px) translate(24px, 0px);
                transform: translate(0px, 0px) translate(0px, 0px) translate(24px, 0px)
    }
    48.08% {
        -webkit-transform: translate(0px, 0px) translate(0px, 0px) translate(22px, 0px);
                transform: translate(0px, 0px) translate(0px, 0px) translate(22px, 0px)
    }
    48.88% {
        -webkit-transform: translate(0px, 0px) translate(0px, 0px) translate(20px, 0px);
                transform: translate(0px, 0px) translate(0px, 0px) translate(20px, 0px)
    }
    49.68% {
        -webkit-transform: translate(0px, 0px) translate(0px, 0px) translate(18px, 0px);
                transform: translate(0px, 0px) translate(0px, 0px) translate(18px, 0px)
    }
    50.48% {
        -webkit-transform: translate(0px, 0px) translate(0px, 0px) translate(16px, 0px);
                transform: translate(0px, 0px) translate(0px, 0px) translate(16px, 0px)
    }
    51.28% {
        -webkit-transform: translate(0px, 0px) translate(0px, 0px) translate(14px, 0px);
                transform: translate(0px, 0px) translate(0px, 0px) translate(14px, 0px)
    }
    52.08% {
        -webkit-transform: translate(0px, 0px) translate(0px, 0px) translate(12px, 0px);
                transform: translate(0px, 0px) translate(0px, 0px) translate(12px, 0px)
    }
    52.88% {
        -webkit-transform: translate(0px, 0px) translate(0px, 0px) translate(10px, 0px);
                transform: translate(0px, 0px) translate(0px, 0px) translate(10px, 0px)
    }
    53.69% {
        -webkit-transform: translate(0px, 0px) translate(0px, 0px) translate(8px, 0px);
                transform: translate(0px, 0px) translate(0px, 0px) translate(8px, 0px)
    }
    54.49% {
        -webkit-transform: translate(0px, 0px) translate(0px, 0px) translate(6px, 0px);
                transform: translate(0px, 0px) translate(0px, 0px) translate(6px, 0px)
    }
    55.29% {
        -webkit-transform: translate(0px, 0px) translate(0px, 0px) translate(4px, 0px);
                transform: translate(0px, 0px) translate(0px, 0px) translate(4px, 0px)
    }
    56.09% {
        -webkit-transform: translate(0px, 0px) translate(0px, 0px) translate(2px, 0px);
                transform: translate(0px, 0px) translate(0px, 0px) translate(2px, 0px)
    }
    56.89% {
        -webkit-transform: translate(0px, 0px) translate(0px, 0px) translate(0px, 0px);
                transform: translate(0px, 0px) translate(0px, 0px) translate(0px, 0px)
    }
    57.69% {
        -webkit-transform: translate(0px, 0px) translate(0px, 0px) translate(0px, 2px);
                transform: translate(0px, 0px) translate(0px, 0px) translate(0px, 2px)
    }
    58.49% {
        -webkit-transform: translate(0px, 0px) translate(0px, 0px) translate(0px, 4px);
                transform: translate(0px, 0px) translate(0px, 0px) translate(0px, 4px)
    }
    59.29% {
        -webkit-transform: translate(0px, 0px) translate(0px, 0px) translate(0px, 6px);
                transform: translate(0px, 0px) translate(0px, 0px) translate(0px, 6px)
    }
    60.10% {
        -webkit-transform: translate(0px, 0px) translate(0px, 0px) translate(0px, 8px);
                transform: translate(0px, 0px) translate(0px, 0px) translate(0px, 8px)
    }
    60.90% {
        -webkit-transform: translate(0px, 0px) translate(0px, 0px) translate(0px, 10px);
                transform: translate(0px, 0px) translate(0px, 0px) translate(0px, 10px)
    }
    61.70% {
        -webkit-transform: translate(0px, 0px) translate(0px, 0px) translate(0px, 12px);
                transform: translate(0px, 0px) translate(0px, 0px) translate(0px, 12px)
    }
    62.50% {
        -webkit-transform: translate(0px, 0px) translate(0px, 0px) translate(0px, 14px);
                transform: translate(0px, 0px) translate(0px, 0px) translate(0px, 14px)
    }
    63.30% {
        -webkit-transform: translate(0px, 0px) translate(0px, 0px) translate(0px, 16px);
                transform: translate(0px, 0px) translate(0px, 0px) translate(0px, 16px)
    }
    64.10% {
        -webkit-transform: translate(0px, 0px) translate(0px, 0px) translate(0px, 18px);
                transform: translate(0px, 0px) translate(0px, 0px) translate(0px, 18px)
    }
    64.90% {
        -webkit-transform: translate(0px, 0px) translate(0px, 0px) translate(0px, 20px);
                transform: translate(0px, 0px) translate(0px, 0px) translate(0px, 20px)
    }
    65.71% {
        -webkit-transform: translate(0px, 0px) translate(0px, 0px) translate(0px, 22px);
                transform: translate(0px, 0px) translate(0px, 0px) translate(0px, 22px)
    }
    66.51% {
        -webkit-transform: translate(0px, 0px) translate(0px, 0px) translate(0px, 24px);
                transform: translate(0px, 0px) translate(0px, 0px) translate(0px, 24px)
    }
    67.31% {
        -webkit-transform: translate(0px, 0px) translate(0px, 0px) translate(0px, 26px);
                transform: translate(0px, 0px) translate(0px, 0px) translate(0px, 26px)
    }
    68.11% {
        -webkit-transform: translate(0px, 0px) translate(0px, 0px) translate(0px, 28px);
                transform: translate(0px, 0px) translate(0px, 0px) translate(0px, 28px)
    }
    68.91% {
        -webkit-transform: translate(0px, 0px) translate(0px, 0px) translate(0px, 30px);
                transform: translate(0px, 0px) translate(0px, 0px) translate(0px, 30px)
    }
    69.71% {
        -webkit-transform: translate(0px, 0px) translate(0px, 0px) translate(0px, 32px);
                transform: translate(0px, 0px) translate(0px, 0px) translate(0px, 32px)
    }
    70.51% {
        -webkit-transform: translate(0px, 0px) translate(0px, 0px) translate(0px, 30px);
                transform: translate(0px, 0px) translate(0px, 0px) translate(0px, 30px)
    }
    71.31% {
        -webkit-transform: translate(0px, 0px) translate(0px, 0px) translate(0px, 28px);
                transform: translate(0px, 0px) translate(0px, 0px) translate(0px, 28px)
    }
    72.12% {
        -webkit-transform: translate(0px, 0px) translate(0px, 0px) translate(0px, 26px);
                transform: translate(0px, 0px) translate(0px, 0px) translate(0px, 26px)
    }
    72.92% {
        -webkit-transform: translate(0px, 0px) translate(0px, 0px) translate(0px, 24px);
                transform: translate(0px, 0px) translate(0px, 0px) translate(0px, 24px)
    }
    73.72% {
        -webkit-transform: translate(0px, 0px) translate(0px, 0px) translate(0px, 22px);
                transform: translate(0px, 0px) translate(0px, 0px) translate(0px, 22px)
    }
    74.52% {
        -webkit-transform: translate(0px, 0px) translate(0px, 0px) translate(0px, 20px);
                transform: translate(0px, 0px) translate(0px, 0px) translate(0px, 20px)
    }
    75.32% {
        -webkit-transform: translate(0px, 0px) translate(0px, 0px) translate(0px, 18px);
                transform: translate(0px, 0px) translate(0px, 0px) translate(0px, 18px)
    }
    76.12% {
        -webkit-transform: translate(0px, 0px) translate(0px, 0px) translate(0px, 16px);
                transform: translate(0px, 0px) translate(0px, 0px) translate(0px, 16px)
    }
    76.92% {
        -webkit-transform: translate(0px, 0px) translate(0px, 0px) translate(0px, 14px);
                transform: translate(0px, 0px) translate(0px, 0px) translate(0px, 14px)
    }
    77.72% {
        -webkit-transform: translate(0px, 0px) translate(0px, 0px) translate(0px, 12px);
                transform: translate(0px, 0px) translate(0px, 0px) translate(0px, 12px)
    }
    78.53% {
        -webkit-transform: translate(0px, 0px) translate(0px, 0px) translate(0px, 10px);
                transform: translate(0px, 0px) translate(0px, 0px) translate(0px, 10px)
    }
    79.33% {
        -webkit-transform: translate(0px, 0px) translate(0px, 0px) translate(0px, 8px);
                transform: translate(0px, 0px) translate(0px, 0px) translate(0px, 8px)
    }
    80.13% {
        -webkit-transform: translate(0px, 0px) translate(0px, 0px) translate(0px, 6px);
                transform: translate(0px, 0px) translate(0px, 0px) translate(0px, 6px)
    }
    80.93% {
        -webkit-transform: translate(0px, 0px) translate(0px, 0px) translate(0px, 4px);
                transform: translate(0px, 0px) translate(0px, 0px) translate(0px, 4px)
    }
    81.73% {
        -webkit-transform: translate(0px, 0px) translate(0px, 0px) translate(0px, 2px);
                transform: translate(0px, 0px) translate(0px, 0px) translate(0px, 2px)
    }
    82.53% {
        -webkit-transform: translate(0px, 0px) translate(0px, 0px) translate(0px, 0px);
                transform: translate(0px, 0px) translate(0px, 0px) translate(0px, 0px)
    }
    83.33% {
        -webkit-transform: translate(0px, 0px) translate(0px, 0px) translate(0px, -2px);
                transform: translate(0px, 0px) translate(0px, 0px) translate(0px, -2px)
    }
    84.13% {
        -webkit-transform: translate(0px, 0px) translate(0px, 0px) translate(0px, -4px);
                transform: translate(0px, 0px) translate(0px, 0px) translate(0px, -4px)
    }
    84.94% {
        -webkit-transform: translate(0px, 0px) translate(0px, 0px) translate(0px, -6px);
                transform: translate(0px, 0px) translate(0px, 0px) translate(0px, -6px)
    }
    85.74% {
        -webkit-transform: translate(0px, 0px) translate(0px, 0px) translate(0px, -8px);
                transform: translate(0px, 0px) translate(0px, 0px) translate(0px, -8px)
    }
    86.54% {
        -webkit-transform: translate(0px, 0px) translate(0px, 0px) translate(0px, -10px);
                transform: translate(0px, 0px) translate(0px, 0px) translate(0px, -10px)
    }
    87.34% {
        -webkit-transform: translate(0px, 0px) translate(0px, 0px) translate(0px, -12px);
                transform: translate(0px, 0px) translate(0px, 0px) translate(0px, -12px)
    }
    88.14% {
        -webkit-transform: translate(0px, 0px) translate(0px, 0px) translate(0px, -14px);
                transform: translate(0px, 0px) translate(0px, 0px) translate(0px, -14px)
    }
    88.94% {
        -webkit-transform: translate(0px, 0px) translate(0px, 0px) translate(0px, -16px);
                transform: translate(0px, 0px) translate(0px, 0px) translate(0px, -16px)
    }
    89.74% {
        -webkit-transform: translate(0px, 0px) translate(0px, 0px) translate(0px, -18px);
                transform: translate(0px, 0px) translate(0px, 0px) translate(0px, -18px)
    }
    90.54% {
        -webkit-transform: translate(0px, 0px) translate(0px, 0px) translate(0px, -20px);
                transform: translate(0px, 0px) translate(0px, 0px) translate(0px, -20px)
    }
    91.35% {
        -webkit-transform: translate(0px, 0px) translate(0px, 0px) translate(0px, -22px);
                transform: translate(0px, 0px) translate(0px, 0px) translate(0px, -22px)
    }
    92.15% {
        -webkit-transform: translate(0px, 0px) translate(0px, 0px) translate(0px, -20px);
                transform: translate(0px, 0px) translate(0px, 0px) translate(0px, -20px)
    }
    92.95% {
        -webkit-transform: translate(0px, 0px) translate(0px, 0px) translate(0px, -18px);
                transform: translate(0px, 0px) translate(0px, 0px) translate(0px, -18px)
    }
    93.75% {
        -webkit-transform: translate(0px, 0px) translate(0px, 0px) translate(0px, -16px);
                transform: translate(0px, 0px) translate(0px, 0px) translate(0px, -16px)
    }
    94.55% {
        -webkit-transform: translate(0px, 0px) translate(0px, 0px) translate(0px, -14px);
                transform: translate(0px, 0px) translate(0px, 0px) translate(0px, -14px)
    }
    95.35% {
        -webkit-transform: translate(0px, 0px) translate(0px, 0px) translate(0px, -12px);
                transform: translate(0px, 0px) translate(0px, 0px) translate(0px, -12px)
    }
    96.15% {
        -webkit-transform: translate(0px, 0px) translate(0px, 0px) translate(0px, -10px);
                transform: translate(0px, 0px) translate(0px, 0px) translate(0px, -10px)
    }
    96.96% {
        -webkit-transform: translate(0px, 0px) translate(0px, 0px) translate(0px, -8px);
                transform: translate(0px, 0px) translate(0px, 0px) translate(0px, -8px)
    }
    97.76% {
        -webkit-transform: translate(0px, 0px) translate(0px, 0px) translate(0px, -6px);
                transform: translate(0px, 0px) translate(0px, 0px) translate(0px, -6px)
    }
    98.56% {
        -webkit-transform: translate(0px, 0px) translate(0px, 0px) translate(0px, -4px);
                transform: translate(0px, 0px) translate(0px, 0px) translate(0px, -4px)
    }
    99.36% {
        -webkit-transform: translate(0px, 0px) translate(0px, 0px) translate(0px, -2px);
                transform: translate(0px, 0px) translate(0px, 0px) translate(0px, -2px)
    }
    100% {
        -webkit-transform: translate(0px, 0px) translate(0px, 0px) translate(0px, -2px);
                transform: translate(0px, 0px) translate(0px, 0px) translate(0px, -2px)
    }
}
#el_lo0U5r6OO * {
    -webkit-animation-duration: 20.8s;
            animation-duration: 20.8s;
    -webkit-animation-iteration-count: infinite;
            animation-iteration-count: infinite;
    -webkit-animation-timing-function: cubic-bezier(0, 0, 1, 1);
            animation-timing-function: cubic-bezier(0, 0, 1, 1)
}
#el_DqF35n4R5N_an_amx_yvykO {
    -webkit-animation-fill-mode: backwards;
            animation-fill-mode: backwards;
    -webkit-transform: translate(0px, 0px) translate(0px, 0px) translate(-2px, 0px);
            transform: translate(0px, 0px) translate(0px, 0px) translate(-2px, 0px);
    -webkit-animation-name: kf_el_DqF35n4R5N_an_amx_yvykO;
            animation-name: kf_el_DqF35n4R5N_an_amx_yvykO;
    -webkit-animation-timing-function: cubic-bezier(0, 0, 1, 1);
            animation-timing-function: cubic-bezier(0, 0, 1, 1)
}</style><style/>  <g id="el_DqF35n4R5N_an_amx_yvykO" data-animator-group="true" data-animator-type="0"><image id="el_DqF35n4R5N" width="500" height="500" x="0" y="0" xlink:href="data:image/png;base64,iVBORw0KGgoAAAANSUhEUgAAAfQAAAH0CAMAAAD8CC+4AAAABGdBTUEAALGPC/xhBQAAACBjSFJN&#10;AAB6JQAAgIMAAPn/AACA6QAAdTAAAOpgAAA6mAAAF2+SX8VGAAACWFBMVEX///8AV/8AV/8AV/8A&#10;V/8AV/8AV/8AV/8AV/8AV/8AV/8AV/8AV/8AV/8AV/8AV/8AV/8AV/8AV/8AV/8AV/8AV/8AV/8A&#10;V/8AV/8AV/8AV/8AV/8AV/8AV/8AV/8AV/8AV/8AV/8AV/8AV/8AV/8AV/8AV/8AV/8AV/8AV/8A&#10;V/8AV/8AV/8AV/8AV/8AV/8AV/8AV/8AV/8AV/8AV/8AV/8AV/8AV/8AV/8AV/8AV/8AV/8AV/8A&#10;V/8AV/8AV/8AV/8AV/8AV/8AV/8AV/8AV/8AV/8AV/8AV/8AV/8AV/8AV/8AV/8AV/8AV/8AV/8A&#10;V/8AV/8AV/8AV/8AV/8AV/8AV/8AV/8AV/8AV/8AV/8AV/8AV/8AV/8AV/8AV/8AV/8AV/8AV/8A&#10;V/8AV/8AV/8AV/8AV/8AV/8AV/8AV/8AV/8AV/8AV/8AV/8AV/8AV/8AV/8AV/8AV/8AV/8AV/8A&#10;V/8AV/8AV/8AV/8AV/8AV/8AV/8AV/8AV/8AV/8AV/8AV/8AV/8AV/8AV/8AV/8AV/8AV/8AV/8A&#10;V/8AV/8AV/8AV/8AV/8AV/8AV/8AV/8AV/8AV/8AV/8AV/8AV/8AV/8AV/8AV/8AV/8AV/8AV/8A&#10;V/8AV/8AV/8AV/8AV/8AV/8AV/8AV/8AV/8AV/8AV/8AV/8AV/8AV/8AV/8AV/8AV/8AV/8AV/8A&#10;V/8AV/8AV/8AV/8AV/8AV/8AV/8AV/8AV/8AV/8AV/8AV/8AV/8AV/8AV/8AV/8AV/8AV/8AV/8A&#10;V/8AV/8AV/8AV/8AV//////JnHUfAAAAx3RSTlMAAAkdMURXZnWDkZ+or7q+zNLbMhU0UmyFnrfR&#10;BCVJb5KyDjdjjLXXLl6NvQo+cqfTPws1qtgFXZgDM7Y9yUCJAX5/GmsGS6HZTCB42kUMYsB70Hwo&#10;j5ukpaIhkwhqwX1QxsceZ7FtAmTVZaPNhCYcB4qLrCc8WIaZmqYNEbAWuBu/whgZvBKzdFZaOdbO&#10;qzpRJEFDFK1xKitpItQPEC1CR64fym7DXFtOuTvIF5RITZWdVLRPKcS7LyOXSlVoll9GeoB2NnOO&#10;xLbBHQAAAAFiS0dEAIgFHUgAAAAJcEhZcwAACxMAAAsTAQCanBgAAAAHdElNRQfjCwwEBQr7qfii&#10;AAARs0lEQVR42u3d/V/VdZrH8bmgEsQbQEADZhBFRS3E7Jhn5OaM2AANKTWGjuFdlKjlXbqRkUJ5&#10;13iXYpmptZnWatZOU9PW1M7uzM62f9fCsCycvDk3fM/1vr6fz/v5kz96Xa8HnMM53+/n+7OfERER&#10;ERERERERERERERERERERERERERERERERERERERERERERERERERERkVUSRlnZ993/wISc3Il5kyZP&#10;mZqfn19QOKhg8B9Tp0yelDcxN2fCA/dPy87S/D+hQzobvai4ZPqMB0vLCpNUVvrgjOklxUUa/zd0&#10;SPeil//8FxUzK5OOfVv8ypkVv/h5OaOHJfqs2VVz5s5LN/dY8+bOqZo9i9FtRy+vnr9gYRC5x1q4&#10;YH51Jn7m0SFdiP7QwzWLaoMOPqJ2Uc3iRxjdlPIlNY9GMhV8ROTRmiVLGd2G7MeWpf2GLVVlyx7L&#10;ZnSw6C9zlmsFH1Ga88soo6OU182o1y4+rH7Gw+N/a4cOGcLo5Q2N+Zjiw/IbG8bZHR0ybNFj9/0K&#10;9DMe9/O+4r4YoytpWhn43+LpWji9idEz7/FfN7egU4/V0tz6OKNn1BO/gb6Q31n+b55g9EyJ3p/X&#10;hg58Z215T6b+Vxw6ZBiir1rdjm57L+1Vqxg9YNlPPY3OmsjTv03twzp0SOvR1zyT8U/WgxB5Zg2j&#10;B6S4w+hL+e3aOooZPQBL1qJLpmbdbEYfp+LfoSOmbu0SRh+H6mZ0wPQ0VzN6mtbPDM1r+U+1Pbue&#10;0dNQlBuKd+x3E8lNdB01OqS96J0b1K6GyZSyDZ2MnoJY60Z0siBsbL3XV6/okMair1mEzhWURff4&#10;tAYd0lT0WZtC/WIeL7LprjdLoENair55CzpUsJ7bzOgJZOehIwWvuYvR7yE6IWP3qCDVPn+nb9vR&#10;IY1EX/MCOk+mVN7hDR06pIno5VsDudXUpnlbb7tgGh3SQvQ1legwmXXbDzs6JD5697bt6CqZtn1H&#10;N6OP1fQiOomGF+MukkeHREdvfQndQ8dLrYz+f7J2omPomTF6gBU6JDT6rrnoEprm7mJ0kZICdAdd&#10;BSXeR+9sREfQ19jpd/Tdjv9xfmeVu32OXmfwdkQN+XX+Rl/t0BfnqYms9jT6nr3o1SO9vAcdEhG9&#10;aB9671j7Ajt1ODzR9ztx6eN4bNzvW/R/ehq9c7yn6/yK/oq3b+HGirziUfRYBXrdVlSM50yyUEWP&#10;9qB3bUdPACeOhiF61qvoTVtyYPzPjQlB9FWvofdsy2u97kd//SB6y9YcfN316If60Du2p++Q29H7&#10;30Bv2KI3+l2O3m/6/D+c9nFVtx19N5vfRftuV6N3ef9x+9292ZX+Xi1HP8yf83toP+Ji9ENH0Xu1&#10;7Wja7+HtRj9Wit6qdaXHXIve6+UVkKk5nuZnc1ajZ4XwtE99v0vvc3ij0aPL0PsMh2VpfedmM3rM&#10;wzsa0tOYzvfrNqO/hd5leLzlSvTfozcZJifciH7yFHqRYXLqpAvR959G7zFcTqd8ZbS96Mf44WuK&#10;Nqb6IY256EsfRe8wfM4sDXn0OegNhtGccEdfjd5fOK0Oc/S3eSNLWiJvhzd6v4En24dTfSrXT5mK&#10;3smrndN2MIXvXkxF9+h4uOD1hDP6WfTewu1sGKOf8+x8uKAVnAtf9CzeyjJOfcm+rNuJnoveWfjl&#10;hi36AHpjLjgfrujvPIdemAvq3wlT9NgB9L7ccCCpq6eMRD+B3pYrkrqOxkb09fxrLSAFiR/DbiR6&#10;+bvoXbnj3fKQRL+A3pRLLoQj+nv8PjVAkYthiB7lXWuBqkz4C95A9PfRW3LN+/ajX7qMXpJrtl+y&#10;Hj22Dr0j96yLGY++Gb0hF5XYjn6FV8VlQP0HpqPzC9WMyLUc/cMW9Hrc1PKh3eixM+jtuOpMzGz0&#10;EvRu3FViNfqqLejVuGvLKqPRa9CbcVmOzehHatGLcdnlJpPRvX6KZua9bDH6Rf65llEtFw1Gb0Zv&#10;xXXN9qKfRO/EfSfNRefZMhl3xlr0f0ZvxAfnbUWPHUcvxAfHu01F/wi9Dz98ZCk6f9B1HI8Zin4e&#10;vQ1fnDcU/Sp6Gb64aid6HXoX/qgzE/1B9Cr8sdZK9HNt6FV45EMj0fmEFkUTbUQv4pMbFEU+NhGd&#10;dyar2mQheuc19Br8cvohA9EfQG/BN/Px0bunoJfgm6Pd8OgN6B34pwEenU9RVbcMHf0wD5hRFzkM&#10;jr4VvQEfXcdGj36CXoCPPolCoy9Gz++nxdDoE9Hj+2kiMvqV7ejx/bT9CjD6p+jpffUvwOg8+Rdk&#10;Hy76bvTs3mrbDYu+DT27v7bBovMiWJirqOj87Q60GxR9B3pwn+0ARedvd6CrmOjZ6Ln9lg2JPgE9&#10;tt8mQKLztzvUZET0JvTUvmsCROdTFsFOAKJ3oIf2XYd+9E4eCgpW26kenZc+wzWoR38KPTI9pR59&#10;OXpkWq4dvQg9MRUWFilH5/PXDNisHJ2HuxuwVzl6O3pgKixs143Oz2BNaFKNfgM9Lg25oRqdj9c0&#10;IVc1eh96XBpyUzN6Lx/SY0Jbr2L0z9DT0rDPFKOvRA9Lw6YrRn8VPSwNO6AY/RZ6WBp2Sy86v20x&#10;43O16HwfZ8aAWvTV6FFpxAa16Dzg3Ywv1KJPRo9KIxZqRY/yQlgzWjqVoq9HT0qj3lOK/q/oQWnU&#10;H5SiV6AHpVE1StG/RA9Ko75Uis6n6RpyXCl6GXpQGlWgE52fvJtySCV6MXpMGqtYJXoJekwaq0Ql&#10;Oi+bMWWlSnRe/mxKrkr0P6LHpLH+qBJ9LnpMGmuuSvSX0GPSWC9pRN+DnpLi7VGI3o8ekuL1K0Sv&#10;Rg9J8aoVog+gh6R4AwrRv0IPSfG+UojOp/UYU6UQ/QJ6SIp3QSH6CvSQFG+FQvQF6CEp3gKF6AfQ&#10;Q1K8DoXoi9BDUrxFCtH5UF1jripE/xo9JMX7WiE6Dwg1pl0h+hb0kBRvi0L00+ghKd5pRvcPo3tI&#10;I3oEPSTFa1OIjp6RforRPcToHlKIztd0YzRe0/nu3Rj+yeYhRveQRnR+9m6Mxmfv/JbNmHaF6Pw+&#10;3RiN79N55YwxGlfO8Bo5YzSuketAD0nxNK6G5XXvxmhc974CPSTF07jDhfeyGaNxLxvvWjVG467V&#10;r9BDUjyN+9MH0ENSPI2TKHjmjDEaZ87wdClj+hWi8xw5Y/YoROeJkbaonBjJs2Ft0TkblqdAm6Jz&#10;CjTPezdF57x3PtnBFJ0nO/AZLqboPMOFT2syRedpTYfQY9JYOs9lkwL0nDRK6QmMfNaqJVrPWuVT&#10;lQ3ReqpyDXpQGqX1/PQ/oAelUTeUor+HHpRGvacUvbMFPSmNaOlUii5H0aPSiIWiFf0L9Kg04ku1&#10;6BvQo9KIlWrRB9Cj0ogBteifo0elEZ+rRZdb6Flp2C3Ri/4qelga1qEYfTp6WBo2XTH6Z+hhadhn&#10;itF729DT0pC2K4rR5SZ6XBpyUzSj70SPS0N2qkb/E3pcGvIn1ehN6HFpSJNqdOFhoQa0i270veiB&#10;qbBwr3L0zeiBqbBws3J03vFgwCHl6LIcPTEtF+3ov0WPTJvUozegR6YG9eidteiZfVfbqR5deAQ4&#10;WIfoRz+BHtp3JwDR+UksWBMguryAntpvlYKIzqvfoTZAop9Dj+23c5DoMgU9t8+mCCY6DycAqgFF&#10;X4Me3GffgKJLKXpyf5UKKjoPDIVZCYv+MXp0f30Miy582C7Iu4KL/il6eF99Cox+ZTt6ej9tvwKM&#10;LhPR4/tppiCj8/oZiAZo9Ogn6Pl99G9RaHS5jl6Aj64LNvqRCHoD/okcAUfn8TP6XhV0dL6VU9cA&#10;j979LXoHvjnaDY8uD6CX4Jv5go/eeQ29Bb+UPWQgulxAr8Evm8RC9KJT6D34pOVjE9F5KoWmmWIj&#10;+jkeJain2kh0eRC9CX+sFSvR69Cr8MfDZqLHrqJ34YvJMTPR5Tx6Gb54UuxEj/GZuyqOxwxFl4/Q&#10;6/DDR2Ipejd/1BV83W0qOl/VNZwXW9HlDHoj7tsn1qKfRK/EfSfNRZdm9E5c1yz2ol/kA7YzquWi&#10;wejyMnotbntZLEZvuozei8suN5mMLjnoxbgsR2xGX7UFvRl3bVllNLqUoFfjrhKxGj3GT2gy5EzM&#10;bHT5kBdOZUTbd2I3usxAr8dNM8Ry9A/q0ftxUf0HpqPzvVwmlIjt6LF16A25Z13MeHS5xAOnArb9&#10;z2I9uryPXpJrNiTauIHo5ZXoLbmlsjwE0eUij6EJUORiwoVbiM57l4N0IfG+TUQv5znBgZmc8Je7&#10;kehyqQC9K1cUXEpi3Tai8+mMQTmRzLaNRI8dQG/LDR2xZLatED0p79xC78sF9UXojinhHS9BOG/m&#10;hzi56JKL3lj45dr5zZ1k9Kw+9M7C7uZDoYsu5/h327gU7DL0Hi3Z6HIWvbZwO2vpjXnS0aUHvbcw&#10;6zH111jy0bNeQG8uvF7ICml06ecVc2mq77f1uUsK0eVtfsualsjbxj5sSyW6VKHXF05V1j5hTSm6&#10;LEDvL4wWxMIdfSnvdErZvqXmvktJLboc24jeYdi8eczeF2gpRpf9p9FbDJfT+w1+a5pqdL6FT0lk&#10;scWvylOOzutoUhF/rQy6Y/rR5S30JsPjLZsXxaQRPcanvCRpb8yZ6BJdht5mOCyLijvRJetF9D7D&#10;YG2W1Wse04ouvTwbPKHjveJWdDnGy6cS6DsmrkWXQ0fRW7Xt6OfiXnQ50o7eq2XtR8TF6NL1Jnqz&#10;dr3ZJW5Gl2x++XIXG7PF1ejSz9/wd9S+W9yNLv1voPdr0Rv94nJ0Ocy/3G5z87C4HV1eP4jesTUH&#10;XxfXo0vvIvSWbVnUK+5Hl6zv0Xu25Pss8SG6RFegN23Hiqj4EV1kG8+F/4e2bQkWhe4YZHT5gSfI&#10;Dtr+Q6I9oTsGGl2K89Ebx8tfknBN6I7BRpc/e/8xTXui053diy5F+9Bbx3q3KIkloTsGHV32zEHv&#10;HWnOHnQjSHSRKm9vg4hsC9lPcXDRpc7Tt3P5dWH71R1gdMn28okAldmhe70OMrpkNaIL6GsM4Xky&#10;gUYX+XfPzpsr+H0Y35kHHF12LUd30FS6Sxh96Fe8RwfO9Yx+qYZuhI0u0urJwQWnW8cMjW6Eji5N&#10;a9E9NKyLuxYO3QgeXbp3nEInybRTO7qF0eOtcfwWx+Pf/GRgdCML0aX8+jx0mMyZd/22Z22hG5mI&#10;LvKNs5/P3fZjzuj/L/qXWnSeTKj9y50eqYduZCW6SFczulDwmh24OTGj0UU2P4eOFKxbZ+/ycDV0&#10;I0vRZdYmh75mj/xq1t3mRDcyFX3wrzdnboKZ9M3dp0Q3MhZdYq1O3Mm+sfVej81EN7IWXaRzQxk6&#10;2XiVbei854joRvaiixTtDPVLe2Rnoqtd0Y0sRhdZ/0Vo735q+yLxg8/RjWxGF6kO6V/tzdVJDIdu&#10;ZDW6yJIQfue6NvHtSox+b7NfQ0dMzWuzkxwM3chydJFp/9GCLpmslu+nJT0WupHt6INv6XIvo3Mm&#10;43Lu+hSGQjeyHl3knRrzN8Pk1yRzSyKjpyJrvumTB9v/MyvFgdCNwhBdJPrXPKN/uLfl/TWa8jjo&#10;RuGIPuiJvxn8LZ//t1Reyhk9dY/faDb1Xr6l+cbj6U2CbhSi6IOaKqaiU4+YWtGU9hjoRuGKLhKb&#10;tuIaundh4bX/mhYbxxDoRmGLPqh8oBH68p7fOFA+vgnQjUIYfaj74h7Qz/u1nsVLx/3fRzcKZ/RB&#10;0eK/l2oX7/t7cep/nzF6sLoeO6B2lU3Zgce6xv8/ZvQgLP3vH/dl/DqbyL4fZ4//lzqjB+mRhh8n&#10;Zez+mMuTfmx4JOD/MLqRC9GHlH83/5mFQQef+sz878b5Rp3RM23WyaoFpYHcADuv9H+qTs4a//+I&#10;0XUs3fVDxbOVab/BK6t8tuLXu4J8BWd0NUXFJVt78vqSPrWsoC+vZ2tJcWpfjDO6regjsrqmPfnK&#10;8zm5E/MmTf62PT8//x/v9SOD/2j/dvKkvIm5Oc+/8uS0rlS/Emd0IiIiIiIiIiIiIiIiIiIiIiIi&#10;IiIiIiIiIiIiIiIiIiIiIiIiIiIiIiIiIiIiIiJf/C+gik/OUIyemgAAACV0RVh0ZGF0ZTpjcmVh&#10;dGUAMjAxOS0xMS0xMlQwNDowNToxMCswMzowMJ4eRpMAAAAldEVYdGRhdGU6bW9kaWZ5ADIwMTkt&#10;MTEtMTJUMDQ6MDU6MTArMDM6MDDvQ/4vAAAAAElFTkSuQmCC"/></g>
</svg>